.......
----------------------------------------------------------------------
Ran 7 tests in 0.016s

OK
Name             Stmts   Miss Branch BrPart  Cover   Missing
------------------------------------------------------------
Netflix.py          45      2      6      1    94%   22-23, 21->22
TestNetflix.py      55      0     12      0   100%
------------------------------------------------------------
TOTAL              100      2     18      1    97%
